<svg width="10" height="10" viewBox="0 0 10 10" fill="none" xmlns="http://www.w3.org/2000/svg">
<path d="M8.77735 3.94971C9.29667 3.94971 9.57074 4.56467 9.22354 4.95085L5.66573 8.90817C5.42897 9.17152 5.01682 9.1736 4.77742 8.91265L1.14674 4.95533C0.793722 4.57055 1.06667 3.94971 1.58886 3.94971L8.77735 3.94971Z" fill="#2C3E4F"/>
</svg>
